{
    "count": 33808,
    "next": "https://api.spaceflightnewsapi.net/v4/articles/?limit=10&offset=10",
    "previous": null,
    "results": [
        {
            "id": 37592,
            "title": "CSDA Quality Assessment Report Evaluates Satellogic NewSat Data",
            "authors": [
                {
                    "name": "NASA",
                    "socials": null
                }
            ],
            "url": "https://science.nasa.gov/uncategorized/csda-quality-assessment-report-evaluates-satellogic-newsat-data/",
            "image_url": "https://science.nasa.gov/wp-content/uploads/2026/04/satellogic-cover.jpg",
            "news_site": "NASA",
            "summary": "The report adds to the growing documentation on commercial data’s contributions to Earth science research and applications.",
            "published_at": "2026-04-17T21:21:02Z",
            "updated_at": "2026-04-17T22:10:08.649144Z",
            "featured": false,
            "launches": [],
            "events": []
        },
        {
            "id": 37591,
            "title": "Webinar 4/29: NASA CSDA Program Vendor Focus- MDA Space",
            "authors": [
                {
                    "name": "NASA",
                    "socials": null
                }
            ],
            "url": "https://science.nasa.gov/science-research/earth-science/webinar-4-29-nasa-csda-program-vendor-focus-mda-space/",
            "image_url": "https://science.nasa.gov/wp-content/uploads/2026/04/csda-banner-rs2.jpg",
            "news_site": "NASA",
            "summary": "Join us April 29 at 2:00 p.m. EDT to learn more about CSDA program vendor MDA Space.",
            "published_at": "2026-04-17T20:33:51Z",
            "updated_at": "2026-04-17T21:10:10.344713Z",
            "featured": false,
            "launches": [],
            "events": []
        },
        {
            "id": 37590,
            "title": "NASA Artemis II Human Research Data Methodology Challenge",
            "authors": [
                {
                    "name": "NASA",
                    "socials": null
                }
            ],
            "url": "https://www.nasa.gov/directorates/stmd/prizes-challenges-crowdsourcing-program/center-of-excellence-for-collaborative-innovation-coeci/nasa-artemis-ii-human-research-data-methodology-challenge/",
            "image_url": "https://images-assets.nasa.gov/image/art002e013365/art002e013365~large.jpg",
            "news_site": "NASA",
            "summary": "NASA’s Human Research Program (HRP) uses research to develop methods to protect the health and performance of astronauts in space. In support of NASA’s goals for long-term missions on the surface of the Moon and human exploration of Mars, HRP is using ground research facilities, the International Space Station, and analog environments to monitor human health in deep space.  NASA’s Artemis II mission was the first […]",
            "published_at": "2026-04-17T18:41:35Z",
            "updated_at": "2026-04-17T18:50:09.668151Z",
            "featured": false,
            "launches": [],
            "events": []
        },
        {
            "id": 37589,
            "title": "NASA, OPM Announce New NASA Force Website, Open Job Applications",
            "authors": [
                {
                    "name": "NASA",
                    "socials": null
                }
            ],
            "url": "https://www.nasa.gov/news-release/nasa-opm-announce-new-nasa-force-website-open-job-applications/",
            "image_url": "https://www.nasa.gov/wp-content/uploads/2026/04/nasa-force-website.png",
            "news_site": "NASA",
            "summary": "NASA and the U.S. Office of Personnel Management (OPM) launched the NASA Force website on Friday, opening applications for roles aimed at recruiting the nation’s top engineers and technologists to support America’s air and space program.  NASA Force, a new hiring initiative developed in partnership with OPM, will recruit and place high-impact technical talent into mission-critical roles supporting NASA’s exploration, research, and advanced technology priorities, […]",
            "published_at": "2026-04-17T17:04:51Z",
            "updated_at": "2026-04-17T17:10:09.312478Z",
            "featured": false,
            "launches": [],
            "events": []
        },
        {
            "id": 37588,
            "title": "Artemis II pilot describes landing in Orion: \"From intense to pure elation\"",
            "authors": [
                {
                    "name": "Eric Berger",
                    "socials": null
                }
            ],
            "url": "https://arstechnica.com/space/2026/04/artemis-ii-pilot-describes-landing-in-orion-from-intense-to-pure-elation/",
            "image_url": "https://cdn.arstechnica.net/wp-content/uploads/2026/04/art002e016204large.jpg",
            "news_site": "Arstechnica",
            "summary": "\"I've been thinking about reentry for three straight years.\"",
            "published_at": "2026-04-17T16:59:44Z",
            "updated_at": "2026-04-17T17:10:07.923956Z",
            "featured": false,
            "launches": [],
            "events": []
        },
        {
            "id": 37587,
            "title": "Quality Assessment Report Evaluates Tomorrow.io Precipitation Radar Data",
            "authors": [
                {
                    "name": "NASA",
                    "socials": null
                }
            ],
            "url": "https://science.nasa.gov/science-research/earth-science/quality-assessment-report-evaluates-tomorrow-io-precipitation-radar-data/",
            "image_url": "https://science.nasa.gov/wp-content/uploads/2026/04/report-with-outline.jpg",
            "news_site": "NASA",
            "summary": "The report adds to the growing documentation on commercial data’s contributions to Earth science research and applications.",
            "published_at": "2026-04-17T15:06:11Z",
            "updated_at": "2026-04-17T16:10:09.874649Z",
            "featured": false,
            "launches": [],
            "events": []
        },
        {
            "id": 37586,
            "title": "Volunteers Discover Rare Space Weather Events Using Their Ears",
            "authors": [
                {
                    "name": "NASA",
                    "socials": null
                }
            ],
            "url": "https://science.nasa.gov/get-involved/citizen-science/volunteers-discover-rare-space-weather-events-using-their-ears/",
            "image_url": "https://assets.science.nasa.gov/dynamicimage/assets/science/cds/citizen-science/highlights/2026/HARP_graphic.jpg",
            "news_site": "NASA",
            "summary": "Scientists are working to understand exactly how these waves behave, and the team behind NASA’s Heliophysics Audified: Resonances in Plasmas (HARP) citizen science project approaches this in a unique way: they compare the Earth’s magnetic field to a giant harp in space.",
            "published_at": "2026-04-17T15:04:32Z",
            "updated_at": "2026-04-17T15:10:09.891166Z",
            "featured": false,
            "launches": [],
            "events": []
        },
        {
            "id": 37585,
            "title": "NASA’s SPHEREx Observatory Maps Interstellar Ice in Milky Way",
            "authors": [
                {
                    "name": "NASA",
                    "socials": null
                }
            ],
            "url": "https://www.nasa.gov/image-article/nasas-spherex-observatory-maps-interstellar-ice-in-milky-way/",
            "image_url": "https://www.nasa.gov/wp-content/uploads/2026/04/pia26748-spherex-cygnus-h2o-ice.jpg",
            "news_site": "NASA",
            "summary": "An observation made by NASA’s SPHEREx (Spectro-Photometer for the History of the Universe, Epoch of Reionization, and Ices Explorer) shows the chemical signatures of water ice (shown in bright blue) and polycyclic aromatic hydrocarbons (orange) in Cygnus X, one of the most active and turbulent regions of star birth in our Milky Way galaxy. The […]",
            "published_at": "2026-04-17T14:14:33Z",
            "updated_at": "2026-04-17T14:20:12.533703Z",
            "featured": false,
            "launches": [],
            "events": []
        },
        {
            "id": 37584,
            "title": "Week in images: 13-17 April 2026",
            "authors": [
                {
                    "name": "ESA",
                    "socials": null
                }
            ],
            "url": "https://www.esa.int/About_Us/Week_in_images/Week_in_images_13-17_April_2026",
            "image_url": "https://www.esa.int/var/esa/storage/images/esa_multimedia/images/2026/04/a_fiery_cloud_at_sunset/27207966-1-eng-GB/A_fiery_cloud_at_sunset_card_full.jpg",
            "news_site": "ESA",
            "summary": "Week in images: 13-17 April 2026",
            "published_at": "2026-04-17T13:10:00Z",
            "updated_at": "2026-04-17T14:10:22.925905Z",
            "featured": false,
            "launches": [],
            "events": []
        },
        {
            "id": 37583,
            "title": "New EU Space Act draft seen as a step backward",
            "authors": [
                {
                    "name": "Jeff Foust",
                    "socials": {
                        "x": "https://x.com/jeff_foust",
                        "youtube": "",
                        "instagram": "",
                        "linkedin": "https://www.linkedin.com/in/jefffoust",
                        "mastodon": "https://mastodon.social/@jfoust",
                        "bluesky": "https://bsky.app/profile/jfoust.bsky.social"
                    }
                }
            ],
            "url": "https://spacenews.com/new-eu-space-act-draft-seen-as-a-step-backward/",
            "image_url": "https://i0.wp.com/spacenews.com/wp-content/uploads/2025/07/P067364-774808-scaled.jpeg?fit=1024%2C683&ssl=1",
            "news_site": "SpaceNews",
            "summary": "\nA revised draft of a proposed European Union space regulation is a step backward, creating uncertainty about how the law would be applied outside the EU, critics argue.\nThe post New EU Space Act draft seen as a step backward appeared first on SpaceNews.",
            "published_at": "2026-04-17T12:03:55Z",
            "updated_at": "2026-04-17T12:10:27.812292Z",
            "featured": false,
            "launches": [],
            "events": []
        }
    ]
}